\relax 
\bibstyle{plainnat}
\citation{IEC61508-0}
\@writefile{toc}{\contentsline {chapter}{\numberline {1}Background}{3}}
\@writefile{lof}{\addvspace {10\p@ }}
\@writefile{lot}{\addvspace {10\p@ }}
\@writefile{toc}{\contentsline {section}{\numberline {1.1}Safety-related Software}{3}}
\citation{sommerville2011}
\citation{sommerville2011}
\citation{ISO26262-1}
\@writefile{toc}{\contentsline {section}{\numberline {1.2}Software Process}{4}}
\citation{ISO26262-1}
\@writefile{lof}{\contentsline {figure}{\numberline {1.1}{\ignorespaces V-Model}}{5}}
\newlabel{fig:v_model}{{1.1}{5}}
\citation{ISO26262-1}
\citation{MISRA-C:2004}
\citation{MISRA-C:2004}
\@writefile{toc}{\contentsline {section}{\numberline {1.3}MISRA Coding Guidelines}{7}}
\newlabel{sec:coding_guidelines}{{1.3}{7}}
\citation{ahmadian2005}
\citation{ISO26262-1}
\@writefile{toc}{\contentsline {chapter}{\numberline {2}Development Methods}{9}}
\@writefile{lof}{\addvspace {10\p@ }}
\@writefile{lot}{\addvspace {10\p@ }}
\newlabel{chap:development_methods}{{2}{9}}
\@writefile{toc}{\contentsline {section}{\numberline {2.1}Model-Based Design}{9}}
\citation{sommerville2011}
\@writefile{lof}{\contentsline {figure}{\numberline {2.1}{\ignorespaces Model Specification}}{10}}
\newlabel{fig:model}{{2.1}{10}}
\@writefile{toc}{\contentsline {section}{\numberline {2.2}Component-Based Design}{10}}
\citation{sommerville2011}
\citation{sommerville2011}
\@writefile{lof}{\contentsline {figure}{\numberline {2.2}{\ignorespaces AUTOSAR Architecture}}{11}}
\newlabel{fig:autosar_arch}{{2.2}{11}}
\citation{scaling_software_agility}
\citation{scaling_software_agility}
\@writefile{toc}{\contentsline {section}{\numberline {2.3}Continuous Integration}{12}}
\@writefile{toc}{\contentsline {chapter}{\numberline {3}Involved Tools}{13}}
\@writefile{lof}{\addvspace {10\p@ }}
\@writefile{lot}{\addvspace {10\p@ }}
\newlabel{chap:involved_tools}{{3}{13}}
\@writefile{toc}{\contentsline {section}{\numberline {3.1}Subversion}{13}}
\@writefile{lof}{\contentsline {figure}{\numberline {3.1}{\ignorespaces Successfull concurrent access}}{13}}
\newlabel{fig:race_condition_svn_success}{{3.1}{13}}
\newlabel{eq:race_condition_svn_success}{{3.1}{14}}
\@writefile{lof}{\contentsline {figure}{\numberline {3.2}{\ignorespaces Conflicting concurrent access}}{14}}
\newlabel{fig:race_condition_svn_fail}{{3.2}{14}}
\newlabel{eq:race_condition_svn_fail}{{3.2}{14}}
\@writefile{lof}{\contentsline {figure}{\numberline {3.3}{\ignorespaces Deadlock situation}}{15}}
\newlabel{fig:deadlock_svn}{{3.3}{15}}
\citation{pilato2008}
\@writefile{toc}{\contentsline {section}{\numberline {3.2}ASCENT}{17}}
\@writefile{toc}{\contentsline {section}{\numberline {3.3}QAC}{18}}
\@writefile{toc}{\contentsline {chapter}{\numberline {4}Analysis}{19}}
\@writefile{lof}{\addvspace {10\p@ }}
\@writefile{lot}{\addvspace {10\p@ }}
\newlabel{chap:analysis}{{4}{19}}
\@writefile{toc}{\contentsline {section}{\numberline {4.1}Current Projects}{19}}
\@writefile{lof}{\contentsline {figure}{\numberline {4.1}{\ignorespaces Relationship between BKEs}}{19}}
\newlabel{fig:ascent}{{4.1}{19}}
\@writefile{toc}{\contentsline {section}{\numberline {4.2}Software developer workflow}{20}}
\@writefile{lof}{\contentsline {figure}{\numberline {4.2}{\ignorespaces Workflow}}{20}}
\newlabel{fig:developer_workflow}{{4.2}{20}}
\@writefile{toc}{\contentsline {subsection}{\numberline {4.2.1}Working Environment Preparation}{21}}
\newlabel{sec:working_environment_preparation}{{4.2.1}{21}}
\@writefile{lof}{\contentsline {figure}{\numberline {4.3}{\ignorespaces Input}}{22}}
\newlabel{fig:ascent_references}{{4.3}{22}}
\@writefile{lof}{\contentsline {figure}{\numberline {4.4}{\ignorespaces Refreshed input}}{22}}
\newlabel{fig:ascent_references_result}{{4.4}{22}}
\@writefile{lof}{\contentsline {figure}{\numberline {4.5}{\ignorespaces Local Structure}}{23}}
\newlabel{fig:local_structure}{{4.5}{23}}
\@writefile{toc}{\contentsline {subsection}{\numberline {4.2.2}Quality QAC Reports}{24}}
\newlabel{sec:quality_qac_reports}{{4.2.2}{24}}
\@writefile{lof}{\contentsline {figure}{\numberline {4.6}{\ignorespaces Violation Fix}}{25}}
\newlabel{fig:violation_fix}{{4.6}{25}}
\@writefile{toc}{\contentsline {chapter}{\numberline {5}Application: QAC Reports}{26}}
\@writefile{lof}{\addvspace {10\p@ }}
\@writefile{lot}{\addvspace {10\p@ }}
\@writefile{toc}{\contentsline {section}{\numberline {5.1}Requirements}{26}}
\@writefile{toc}{\contentsline {section}{\numberline {5.2}Design}{26}}
\@writefile{lof}{\contentsline {figure}{\numberline {5.1}{\ignorespaces Level 1 Data Flow Diagram}}{27}}
\newlabel{fig:dfd_qac_report}{{5.1}{27}}
\@writefile{toc}{\contentsline {subsection}{\numberline {5.2.1}Data Producer}{28}}
\citation{gamma1994}
\@writefile{lof}{\contentsline {figure}{\numberline {5.2}{\ignorespaces Template Method Pattern}}{29}}
\newlabel{fig:template_method}{{5.2}{29}}
\citation{oracle2014}
\@writefile{lof}{\contentsline {figure}{\numberline {5.3}{\ignorespaces Table Model}}{31}}
\newlabel{fig:sql_tables}{{5.3}{31}}
\@writefile{toc}{\contentsline {subsection}{\numberline {5.2.2}SQL Storage}{31}}
\@writefile{toc}{\contentsline {subsection}{\numberline {5.2.3}Presenter}{33}}
\@writefile{toc}{\contentsline {subsection}{\numberline {5.2.4}SQL Renderer}{33}}
\@writefile{lof}{\contentsline {figure}{\numberline {5.4}{\ignorespaces Rendering Sequence}}{34}}
\newlabel{fig:rendering_sequence}{{5.4}{34}}
\@writefile{lol}{\contentsline {lstlisting}{insert}{34}}
\@writefile{toc}{\contentsline {section}{\numberline {5.3}Implementation}{34}}
\newlabel{qac_implementation}{{5.3}{34}}
\@writefile{toc}{\contentsline {subsection}{\numberline {5.3.1}SQL Table Population}{34}}
\@writefile{toc}{\contentsline {chapter}{\numberline {6}Application: Working Environment}{35}}
\@writefile{lof}{\addvspace {10\p@ }}
\@writefile{lot}{\addvspace {10\p@ }}
\@writefile{toc}{\contentsline {section}{\numberline {6.1}Requirements}{35}}
\@writefile{toc}{\contentsline {section}{\numberline {6.2}Design}{35}}
\@writefile{toc}{\contentsline {section}{\numberline {6.3}Implementation}{35}}
\citation{design_patterns}
\@writefile{toc}{\contentsline {chapter}{\numberline {7}Conclusion}{36}}
\@writefile{lof}{\addvspace {10\p@ }}
\@writefile{lot}{\addvspace {10\p@ }}
\bibdata{references}
\@writefile{toc}{\contentsline {chapter}{\numberline {8}Appendices}{37}}
\@writefile{lof}{\addvspace {10\p@ }}
\@writefile{lot}{\addvspace {10\p@ }}
\bibcite{ahmadian2005}{{1}{2005}{{Ahmadian et~al.}}{{Ahmadian, Nazari, Nakhaee, and Kostic}}}
\bibcite{gamma1994}{{2}{1994}{{Gamma and Helm}}{{}}}
\bibcite{IEC61508-0}{{3}{2005}{{IEC-61508}}{{}}}
\bibcite{ISO26262-1}{{4}{2011}{{ISO-26262}}{{}}}
\bibcite{scaling_software_agility}{{5}{2007}{{Leffingwell}}{{}}}
\bibcite{MISRA-C:2004}{{6}{2004}{{MISRA-C:2004}}{{}}}
\bibcite{oracle2014}{{7}{}{{Oracle}}{{}}}
\bibcite{pilato2008}{{8}{2008}{{Pilato et~al.}}{{Pilato, Collins-Sussman, and Fitzpatrick}}}
\bibcite{sommerville2011}{{9}{2011}{{Sommerville}}{{}}}
